# Fdb version 3
["xdvipdfmx"] 1581169652 "build/letter.xdv" "build/letter.pdf" "build/letter" 1581169653
  "build/letter.xdv" 1581169652 26148 ba0c95ae93fcacc010bad033df5acdec "xelatex"
  (generated)
  "build/letter.pdf"
["xelatex"] 1581169652 "letter.tex" "build/letter.xdv" "letter" 1581169653
  "/usr/share/texmf-dist/fonts/map/fontname/texfonts.map" 1572595918 3332 103109f5612ad95229751940c61aada0 ""
  "/usr/share/texmf-dist/fonts/tfm/adobe/zapfding/pzdr.tfm" 1572595918 1528 f853c4d1b4e0550255e02831fdc8496f ""
  "/usr/share/texmf-dist/tex/generic/ifxetex/ifxetex.sty" 1572595918 1458 43ab4710dc82f3edeabecd0d099626b2 ""
  "/usr/share/texmf-dist/tex/generic/oberdiek/gettitlestring.sty" 1572595918 8237 3b62ef1f7e2c23a328c814b3893bc11f ""
  "/usr/share/texmf-dist/tex/generic/oberdiek/hobsub-generic.sty" 1572595918 185392 ed78c0cbc4fc8c3af82e7bffbdeeb1a9 ""
  "/usr/share/texmf-dist/tex/generic/oberdiek/hobsub-hyperref.sty" 1572595918 70864 bcd5b216757bd619ae692a151d90085d ""
  "/usr/share/texmf-dist/tex/generic/oberdiek/se-ascii-print.def" 1572595918 3154 688330b6ca706e672a9310fc1a549476 ""
  "/usr/share/texmf-dist/tex/generic/oberdiek/stringenc.sty" 1572595918 21411 4c6135fd98dd4f5499becbfc9a323deb ""
  "/usr/share/texmf-dist/tex/latex/base/letter.cls" 1572595918 13665 e13fcad407bc9fa2ccd8c179f38a3de2 ""
  "/usr/share/texmf-dist/tex/latex/base/size10.clo" 1572595918 8405 41d2bb848d0640ceaee96d90b89378b7 ""
  "/usr/share/texmf-dist/tex/latex/graphics/keyval.sty" 1572595918 2590 3aa06f747eb7e19c8d68947f1828fd06 ""
  "/usr/share/texmf-dist/tex/latex/hyperref/hxetex.def" 1572595918 45238 ad1fe9c4138c653495a15384f3ce88ad ""
  "/usr/share/texmf-dist/tex/latex/hyperref/hyperref.sty" 1572595918 237978 e4178d76d356458ee5b5bd9824c0b5ad ""
  "/usr/share/texmf-dist/tex/latex/hyperref/nameref.sty" 1572595918 13244 a88fa0a3a6ad5b15d16d610d96a714c3 ""
  "/usr/share/texmf-dist/tex/latex/hyperref/pd1enc.def" 1572595918 14125 9a4c1cce42012c8e8ca01d29ccf79db0 ""
  "/usr/share/texmf-dist/tex/latex/hyperref/puenc.def" 1572595918 122438 1738d75f4d3949de5c376d48e2f2bb7e ""
  "/usr/share/texmf-dist/tex/latex/latexconfig/hyperref.cfg" 1572595918 235 6031e5765137be07eed51a510b2b8fb7 ""
  "/usr/share/texmf-dist/tex/latex/oberdiek/auxhook.sty" 1572595918 3834 4363110eb0ef1eb2b71c8fcbcdb6c357 ""
  "/usr/share/texmf-dist/tex/latex/oberdiek/kvoptions.sty" 1572595918 22417 1d9df1eb66848aa31b18a593099cf45c ""
  "/usr/share/texmf-dist/tex/latex/oberdiek/rerunfilecheck.sty" 1572595918 9581 023642318cef9f4677efe364de1e2a27 ""
  "/usr/share/texmf-dist/tex/latex/url/url.sty" 1572595918 12796 8edb7d69a20b857904dd0ea757c14ec9 ""
  "/usr/share/texmf-dist/web2c/texmf.cnf" 1572595918 33301 a3134070eacafb10b1f371612ce2650d ""
  "/var/lib/texmf/web2c/xetex/xelatex.fmt" 1581078755 4126403 d6144c3d3f9df932d75b9ee08168b882 ""
  "build/letter.aux" 1581169652 674 c319a3c8f2b9edaf92fe026bb7050584 "xelatex"
  "build/letter.out" 1581169652 0 d41d8cd98f00b204e9800998ecf8427e "xelatex"
  "letter.tex" 1581169651 2967 5e40dc1b388c625551dbe0d4b0e0c929 ""
  (generated)
  "build/letter.log"
  "build/letter.xdv"
  "build/letter.out"
  "build/letter.aux"
