# Fdb version 3
["bibtex build/elsarticle-template-num"] 1583163080 "build/elsarticle-template-num.aux" "build/elsarticle-template-num.bbl" "build/elsarticle-template-num" 1583164295
  "./elsarticle-num.bst" 1581171685 29460 2275c7bf739c33eb83606c7fd1a5fb71 ""
  "build/elsarticle-template-num.aux" 1583164293 7846 b118c06da36c128db13335b0e5528295 "xelatex"
  "references.bib" 1583159539 11259 43404a0deb5bf3cb71b473a22a69e23a ""
  (generated)
  "build/elsarticle-template-num.blg"
  "build/elsarticle-template-num.bbl"
["xdvipdfmx"] 1583164293 "build/elsarticle-template-num.xdv" "build/elsarticle-template-num.pdf" "build/elsarticle-template-num" 1583164295
  "build/elsarticle-template-num.xdv" 1583164293 334148 160097ea7f31be10aebf1a88544d547a "xelatex"
  (generated)
  "build/elsarticle-template-num.pdf"
["xelatex"] 1583164292 "elsarticle-template-num.tex" "build/elsarticle-template-num.xdv" "elsarticle-template-num" 1583164295
  "/dev/null" 1583153493 0 d41d8cd98f00b204e9800998ecf8427e ""
  "/usr/share/texmf-dist/fonts/map/fontname/texfonts.map" 1572595918 3332 103109f5612ad95229751940c61aada0 ""
  "/usr/share/texmf-dist/fonts/tfm/adobe/zapfding/pzdr.tfm" 1572595918 1528 f853c4d1b4e0550255e02831fdc8496f ""
  "/usr/share/texmf-dist/fonts/tfm/public/amsfonts/cmextra/cmbsy5.tfm" 1572595918 1120 1e8878807317373affa7f7bba4cf2f6a ""
  "/usr/share/texmf-dist/fonts/tfm/public/amsfonts/cmextra/cmbsy6.tfm" 1572595918 1124 14ccf5552bc7f77ca02a8a402bea8bfb ""
  "/usr/share/texmf-dist/fonts/tfm/public/amsfonts/cmextra/cmbsy7.tfm" 1572595918 1120 7f9f170e8aa57527ad6c49feafd45d54 ""
  "/usr/share/texmf-dist/fonts/tfm/public/amsfonts/cmextra/cmbsy8.tfm" 1572595918 1120 200be8b775682cdf80acad4be5ef57e4 ""
  "/usr/share/texmf-dist/fonts/tfm/public/amsfonts/cmextra/cmex7.tfm" 1572595918 1004 54797486969f23fa377b128694d548df ""
  "/usr/share/texmf-dist/fonts/tfm/public/amsfonts/cmextra/cmex8.tfm" 1572595918 988 bdf658c3bfc2d96d3c8b02cfc1c94c20 ""
  "/usr/share/texmf-dist/fonts/tfm/public/amsfonts/cmextra/cmmib5.tfm" 1572595918 1496 c79f6914c6d39ffb3759967363d1be79 ""
  "/usr/share/texmf-dist/fonts/tfm/public/amsfonts/cmextra/cmmib6.tfm" 1572595918 1516 a3bf6a5e7ec4401b1f52092dfaaed242 ""
  "/usr/share/texmf-dist/fonts/tfm/public/amsfonts/cmextra/cmmib7.tfm" 1572595918 1508 6e807ff901c35a5f1fde0ca275533df8 ""
  "/usr/share/texmf-dist/fonts/tfm/public/amsfonts/cmextra/cmmib8.tfm" 1572595918 1528 dab402b9d3774ca98baa037071cee7ae ""
  "/usr/share/texmf-dist/fonts/tfm/public/amsfonts/symbols/msam10.tfm" 1572595918 916 f87d7c45f9c908e672703b83b72241a3 ""
  "/usr/share/texmf-dist/fonts/tfm/public/amsfonts/symbols/msam5.tfm" 1572595918 924 9904cf1d39e9767e7a3622f2a125a565 ""
  "/usr/share/texmf-dist/fonts/tfm/public/amsfonts/symbols/msam7.tfm" 1572595918 928 2dc8d444221b7a635bb58038579b861a ""
  "/usr/share/texmf-dist/fonts/tfm/public/amsfonts/symbols/msbm10.tfm" 1572595918 908 2921f8a10601f252058503cc6570e581 ""
  "/usr/share/texmf-dist/fonts/tfm/public/amsfonts/symbols/msbm5.tfm" 1572595918 940 75ac932a52f80982a9f8ea75d03a34cf ""
  "/usr/share/texmf-dist/fonts/tfm/public/amsfonts/symbols/msbm7.tfm" 1572595918 940 228d6584342e91276bf566bcf9716b83 ""
  "/usr/share/texmf-dist/fonts/tfm/public/cm/cmbsy10.tfm" 1572595918 1116 4e6ba9d7914baa6482fd69f67d126380 ""
  "/usr/share/texmf-dist/fonts/tfm/public/cm/cmbx10.tfm" 1572595918 1328 c834bbb027764024c09d3d2bf908b5f0 ""
  "/usr/share/texmf-dist/fonts/tfm/public/cm/cmbx12.tfm" 1572595918 1324 c910af8c371558dc20f2d7822f66fe64 ""
  "/usr/share/texmf-dist/fonts/tfm/public/cm/cmbx5.tfm" 1572595918 1332 f817c21a1ba54560425663374f1b651a ""
  "/usr/share/texmf-dist/fonts/tfm/public/cm/cmbx6.tfm" 1572595918 1344 8a0be4fe4d376203000810ad4dc81558 ""
  "/usr/share/texmf-dist/fonts/tfm/public/cm/cmbx7.tfm" 1572595918 1336 3125ccb448c1a09074e3aa4a9832f130 ""
  "/usr/share/texmf-dist/fonts/tfm/public/cm/cmbx8.tfm" 1572595918 1332 1fde11373e221473104d6cc5993f046e ""
  "/usr/share/texmf-dist/fonts/tfm/public/cm/cmex10.tfm" 1572595918 992 662f679a0b3d2d53c1b94050fdaa3f50 ""
  "/usr/share/texmf-dist/fonts/tfm/public/cm/cmmi12.tfm" 1572595918 1524 4414a8315f39513458b80dfc63bff03a ""
  "/usr/share/texmf-dist/fonts/tfm/public/cm/cmmi6.tfm" 1572595918 1512 f21f83efb36853c0b70002322c1ab3ad ""
  "/usr/share/texmf-dist/fonts/tfm/public/cm/cmmi8.tfm" 1572595918 1520 eccf95517727cb11801f4f1aee3a21b4 ""
  "/usr/share/texmf-dist/fonts/tfm/public/cm/cmmib10.tfm" 1572595918 1524 554068197b70979a55370e6c6495f441 ""
  "/usr/share/texmf-dist/fonts/tfm/public/cm/cmr10.tfm" 1572595918 1296 45809c5a464d5f32c8f98ba97c1bb47f ""
  "/usr/share/texmf-dist/fonts/tfm/public/cm/cmr12.tfm" 1572595918 1288 655e228510b4c2a1abe905c368440826 ""
  "/usr/share/texmf-dist/fonts/tfm/public/cm/cmr6.tfm" 1572595918 1300 b62933e007d01cfd073f79b963c01526 ""
  "/usr/share/texmf-dist/fonts/tfm/public/cm/cmr8.tfm" 1572595918 1292 21c1c5bfeaebccffdb478fd231a0997d ""
  "/usr/share/texmf-dist/fonts/tfm/public/cm/cmss10.tfm" 1572595918 1316 b636689f1933f24d1294acdf6041daaa ""
  "/usr/share/texmf-dist/fonts/tfm/public/cm/cmss12.tfm" 1572595918 1324 37b971caf729d7edd9cbb9f9b0ea76eb ""
  "/usr/share/texmf-dist/fonts/tfm/public/cm/cmss8.tfm" 1572595918 1296 d77f431d10d47c8ea2cc18cf45346274 ""
  "/usr/share/texmf-dist/fonts/tfm/public/cm/cmsy10.tfm" 1572595918 1124 6c73e740cf17375f03eec0ee63599741 ""
  "/usr/share/texmf-dist/fonts/tfm/public/cm/cmsy6.tfm" 1572595918 1116 933a60c408fc0a863a92debe84b2d294 ""
  "/usr/share/texmf-dist/fonts/tfm/public/cm/cmsy8.tfm" 1572595918 1120 8b7d695260f3cff42e636090a8002094 ""
  "/usr/share/texmf-dist/fonts/tfm/public/cm/cmtt10.tfm" 1572595918 768 1321e9409b4137d6fb428ac9dc956269 ""
  "/usr/share/texmf-dist/fonts/tfm/public/cm/cmtt12.tfm" 1572595918 772 9a936b7f5e2ff0557fce0f62822f0bbf ""
  "/usr/share/texmf-dist/fonts/tfm/public/cm/cmtt8.tfm" 1572595918 768 d7b9a2629a0c353102ad947dc9221d49 ""
  "/usr/share/texmf-dist/tex/generic/ifxetex/ifxetex.sty" 1572595918 1458 43ab4710dc82f3edeabecd0d099626b2 ""
  "/usr/share/texmf-dist/tex/generic/oberdiek/gettitlestring.sty" 1572595918 8237 3b62ef1f7e2c23a328c814b3893bc11f ""
  "/usr/share/texmf-dist/tex/generic/oberdiek/hobsub-generic.sty" 1572595918 185392 ed78c0cbc4fc8c3af82e7bffbdeeb1a9 ""
  "/usr/share/texmf-dist/tex/generic/oberdiek/hobsub-hyperref.sty" 1572595918 70864 bcd5b216757bd619ae692a151d90085d ""
  "/usr/share/texmf-dist/tex/generic/oberdiek/se-ascii-print.def" 1572595918 3154 688330b6ca706e672a9310fc1a549476 ""
  "/usr/share/texmf-dist/tex/generic/oberdiek/stringenc.sty" 1572595918 21411 4c6135fd98dd4f5499becbfc9a323deb ""
  "/usr/share/texmf-dist/tex/generic/unicode-data/CaseFolding.txt" 1572595918 82624 900e76da1d822a160fd6b8c0b1d70094 ""
  "/usr/share/texmf-dist/tex/generic/unicode-data/SpecialCasing.txt" 1572595918 16830 e517fe1ac2549a3f0647fbc1e2b2df83 ""
  "/usr/share/texmf-dist/tex/generic/unicode-data/UnicodeData.txt" 1572595918 1797778 755f6af699f8c8d2d958da411f78f6c6 ""
  "/usr/share/texmf-dist/tex/latex/amscls/amsthm.sty" 1572595918 12604 3dec726c041422879dc3268237f09026 ""
  "/usr/share/texmf-dist/tex/latex/amsfonts/amsfonts.sty" 1572595918 5949 3f3fd50a8cc94c3d4cbf4fc66cd3df1c ""
  "/usr/share/texmf-dist/tex/latex/amsfonts/amssymb.sty" 1572595918 13829 94730e64147574077f8ecfea9bb69af4 ""
  "/usr/share/texmf-dist/tex/latex/amsfonts/umsa.fd" 1572595918 961 6518c6525a34feb5e8250ffa91731cff ""
  "/usr/share/texmf-dist/tex/latex/amsfonts/umsb.fd" 1572595918 961 d02606146ba5601b5645f987c92e6193 ""
  "/usr/share/texmf-dist/tex/latex/amsmath/amsgen.sty" 1572595918 4161 7f6eb9092061a11f87d08ed13515b48d ""
  "/usr/share/texmf-dist/tex/latex/amsmath/amstext.sty" 1572595918 2432 8ff93b1137020e8f21930562a874ae66 ""
  "/usr/share/texmf-dist/tex/latex/base/article.cls" 1572595918 19931 9ab70b303cca263e0120c205e98dee99 ""
  "/usr/share/texmf-dist/tex/latex/base/size12.clo" 1572595918 8406 9c942fcfb21ffa8e69675415d5a2896e ""
  "/usr/share/texmf-dist/tex/latex/booktabs/booktabs.sty" 1572595918 5950 e9cdc09d1426cd2e1a36fffb0c90bfa9 ""
  "/usr/share/texmf-dist/tex/latex/caption/caption3.sty" 1572595918 68575 41af57b9d23e31041c5fb63021aa6d56 ""
  "/usr/share/texmf-dist/tex/latex/graphics-cfg/graphics.cfg" 1572595918 1224 978390e9c2234eab29404bc21b268d1e ""
  "/usr/share/texmf-dist/tex/latex/graphics-def/xetex.def" 1572595918 12707 672c620846df0fecf0a7a99fed83566d ""
  "/usr/share/texmf-dist/tex/latex/graphics/graphics.sty" 1572595918 16458 1bb0e1418e20f598314cbad8ab796f2f ""
  "/usr/share/texmf-dist/tex/latex/graphics/graphicx.sty" 1572595918 9057 e434b0c2dbde71054f2dde205cf3bde4 ""
  "/usr/share/texmf-dist/tex/latex/graphics/keyval.sty" 1572595918 2590 3aa06f747eb7e19c8d68947f1828fd06 ""
  "/usr/share/texmf-dist/tex/latex/graphics/trig.sty" 1572595918 3976 f6c84526d8a14dceb492f9a764e82175 ""
  "/usr/share/texmf-dist/tex/latex/hyperref/hxetex.def" 1572595918 45238 ad1fe9c4138c653495a15384f3ce88ad ""
  "/usr/share/texmf-dist/tex/latex/hyperref/hyperref.sty" 1572595918 237978 e4178d76d356458ee5b5bd9824c0b5ad ""
  "/usr/share/texmf-dist/tex/latex/hyperref/nameref.sty" 1572595918 13244 a88fa0a3a6ad5b15d16d610d96a714c3 ""
  "/usr/share/texmf-dist/tex/latex/hyperref/pd1enc.def" 1572595918 14125 9a4c1cce42012c8e8ca01d29ccf79db0 ""
  "/usr/share/texmf-dist/tex/latex/hyperref/puenc.def" 1572595918 122438 1738d75f4d3949de5c376d48e2f2bb7e ""
  "/usr/share/texmf-dist/tex/latex/l3backend/l3backend-xdvipdfmx.def" 1572595918 24128 24a2276ee777b632b9d56187dc129fc4 ""
  "/usr/share/texmf-dist/tex/latex/l3kernel/expl3-code.tex" 1572595918 1018098 68ee75e58b3e6c647f137094569be036 ""
  "/usr/share/texmf-dist/tex/latex/l3kernel/expl3.sty" 1572595918 4381 bb0468277e5fe92757223d98f2cad58e ""
  "/usr/share/texmf-dist/tex/latex/l3kernel/l3deprecation.def" 1572595918 9892 1ec016acc4d32bf498c20738383470b5 ""
  "/usr/share/texmf-dist/tex/latex/l3packages/l3keys2e/l3keys2e.sty" 1572595918 4520 1161269abe88ec94dddd509a3b3582fd ""
  "/usr/share/texmf-dist/tex/latex/l3packages/xparse/xparse.sty" 1572595918 81717 03294ce0fabc3e7b7749bf6850c22be8 ""
  "/usr/share/texmf-dist/tex/latex/latexconfig/hyperref.cfg" 1572595918 235 6031e5765137be07eed51a510b2b8fb7 ""
  "/usr/share/texmf-dist/tex/latex/lineno/lineno.sty" 1572595918 151738 8cd767481920f0eb785302dacfc87057 ""
  "/usr/share/texmf-dist/tex/latex/natbib/natbib.sty" 1572595918 45456 1c8843383c0bd05870c45fa0ebea6cc2 ""
  "/usr/share/texmf-dist/tex/latex/oberdiek/auxhook.sty" 1572595918 3834 4363110eb0ef1eb2b71c8fcbcdb6c357 ""
  "/usr/share/texmf-dist/tex/latex/oberdiek/kvoptions.sty" 1572595918 22417 1d9df1eb66848aa31b18a593099cf45c ""
  "/usr/share/texmf-dist/tex/latex/oberdiek/rerunfilecheck.sty" 1572595918 9581 023642318cef9f4677efe364de1e2a27 ""
  "/usr/share/texmf-dist/tex/latex/siunitx/siunitx-abbreviations.cfg" 1572570994 4745 5e578e91b3a2e2e7f888f49fe4d3df59 ""
  "/usr/share/texmf-dist/tex/latex/siunitx/siunitx.sty" 1572570994 277239 5fe87c621fe5497b7e396a7f0945e099 ""
  "/usr/share/texmf-dist/tex/latex/subfig/subfig.sty" 1572595918 21369 9ef165ca6df8815c92e693146a376c92 ""
  "/usr/share/texmf-dist/tex/latex/tools/array.sty" 1572595918 12560 4a5687b6718c08af61b1ad834ba27b87 ""
  "/usr/share/texmf-dist/tex/latex/tools/bm.sty" 1572595918 12671 adbf10c406b6bea2e2563bf450a7ef2c ""
  "/usr/share/texmf-dist/tex/latex/translator/translator-basic-dictionary-English.dict" 1572595918 3435 0a4d096dde3f8fe682c2aedd33b8137d ""
  "/usr/share/texmf-dist/tex/latex/translator/translator.sty" 1572595918 8691 e154b4b39c7cd1cfa9301a391c44afdd ""
  "/usr/share/texmf-dist/tex/latex/url/url.sty" 1572595918 12796 8edb7d69a20b857904dd0ea757c14ec9 ""
  "/usr/share/texmf-dist/web2c/texmf.cnf" 1572595918 33301 a3134070eacafb10b1f371612ce2650d ""
  "/var/lib/texmf/web2c/xetex/xelatex.fmt" 1581078755 4126403 d6144c3d3f9df932d75b9ee08168b882 ""
  "build/elsarticle-template-num.aux" 1583164293 7846 b118c06da36c128db13335b0e5528295 "xelatex"
  "build/elsarticle-template-num.bbl" 1583163080 5650 c1f1d5e29b124452ba07c759c136e90a "bibtex build/elsarticle-template-num"
  "build/elsarticle-template-num.out" 1583164293 973 d912207f79aacee2e635e54a797c869a "xelatex"
  "build/elsarticle-template-num.spl" 1583164293 0 d41d8cd98f00b204e9800998ecf8427e "xelatex"
  "elsarticle-template-num.tex" 1583164291 29923 6088c40302544c34e775202713f556bd ""
  "elsarticle.cls" 1581171685 33582 ca4d82945563f2e96c307abd62d8a81e ""
  "img/image1.png" 1581172822 134901 7dcecca189812138ad46e5a5fc43b906 ""
  "img/image10.png" 1581173063 7443 852be0dad5eddb94d0ab54221215c088 ""
  "img/image11.png" 1581173091 49375 e2aad0b58035c7a14a8c0cbe8586e658 ""
  "img/image12.png" 1581173118 87804 4da149f6d01293233dffe30063c76f83 ""
  "img/image13.png" 1581173136 68801 197f85d3283255f17c9157169f84891d ""
  "img/image14.png" 1581173154 37363 3bb99a7893085ecfd4fd689445601465 ""
  "img/image15.png" 1581173184 139729 e6ee2c2668ad11d1035f6f5fd7caae1a ""
  "img/image16.png" 1581173201 94757 3eee08c26fe509647e5a17cde5b4ef74 ""
  "img/image17.png" 1581173221 66744 738447961ba260cf597240d0786d2ebb ""
  "img/image2.jpg" 1581172872 93302 e13aec37e2028df368af562349dbb76e ""
  "img/image3.png" 1581172898 15354 bfe595f5a752987ae324532c4f16ab21 ""
  "img/image5.png" 1581172959 15438 7b116e31051cfaaedf8f3fb4de75b237 ""
  "img/image6.png" 1581172976 71923 0575c97a79878fad15c3d18de9eac986 ""
  "img/image7.png" 1581173000 116977 391c417031d8be80df45cdc42fb3bc79 ""
  "img/image8.png" 1581173025 8500 8e205a51342ab38de6227e8f4580bb26 ""
  "img/image9.png" 1581173042 7347 56dd3290aae6a229acd224666d8438ee ""
  (generated)
  "build/elsarticle-template-num.xdv"
  "build/elsarticle-template-num.log"
  "build/elsarticle-template-num.out"
  "build/elsarticle-template-num.spl"
  "build/elsarticle-template-num.aux"
