PWD /home/luiz/Documents/articles/consumption-prediction-and-evaluation-of-harmonic-distortion-in-a-hospital-using-neural-networks
INPUT /usr/share/texmf-dist/web2c/texmf.cnf
INPUT /var/lib/texmf/web2c/xetex/xelatex.fmt
INPUT elsarticle-template-num.tex
OUTPUT build/elsarticle-template-num.log
INPUT elsarticle.cls
INPUT elsarticle.cls
INPUT /usr/share/texmf-dist/tex/latex/base/article.cls
INPUT /usr/share/texmf-dist/tex/latex/base/article.cls
INPUT /usr/share/texmf-dist/tex/latex/base/size12.clo
INPUT /usr/share/texmf-dist/tex/latex/base/size12.clo
INPUT /usr/share/texmf-dist/tex/latex/graphics/graphicx.sty
INPUT /usr/share/texmf-dist/tex/latex/graphics/graphicx.sty
INPUT /usr/share/texmf-dist/tex/latex/graphics/keyval.sty
INPUT /usr/share/texmf-dist/tex/latex/graphics/keyval.sty
INPUT /usr/share/texmf-dist/tex/latex/graphics/graphics.sty
INPUT /usr/share/texmf-dist/tex/latex/graphics/graphics.sty
INPUT /usr/share/texmf-dist/tex/latex/graphics/trig.sty
INPUT /usr/share/texmf-dist/tex/latex/graphics/trig.sty
INPUT /usr/share/texmf-dist/tex/latex/graphics-cfg/graphics.cfg
INPUT /usr/share/texmf-dist/tex/latex/graphics-cfg/graphics.cfg
INPUT /usr/share/texmf-dist/tex/latex/graphics-def/xetex.def
INPUT /usr/share/texmf-dist/tex/latex/graphics-def/xetex.def
INPUT build/elsarticle-template-num.spl
INPUT build/elsarticle-template-num.spl
INPUT /usr/share/texmf-dist/tex/latex/natbib/natbib.sty
INPUT /usr/share/texmf-dist/tex/latex/natbib/natbib.sty
OUTPUT build/elsarticle-template-num.spl
INPUT /usr/share/texmf-dist/tex/latex/lineno/lineno.sty
INPUT /usr/share/texmf-dist/tex/latex/lineno/lineno.sty
INPUT /usr/share/texmf-dist/tex/latex/amsfonts/amssymb.sty
INPUT /usr/share/texmf-dist/tex/latex/amsfonts/amssymb.sty
INPUT /usr/share/texmf-dist/tex/latex/amsfonts/amsfonts.sty
INPUT /usr/share/texmf-dist/tex/latex/amsfonts/amsfonts.sty
INPUT /usr/share/texmf-dist/tex/latex/amscls/amsthm.sty
INPUT /usr/share/texmf-dist/tex/latex/amscls/amsthm.sty
INPUT /usr/share/texmf-dist/tex/latex/tools/array.sty
INPUT /usr/share/texmf-dist/tex/latex/tools/array.sty
INPUT /usr/share/texmf-dist/tex/latex/tools/bm.sty
INPUT /usr/share/texmf-dist/tex/latex/tools/bm.sty
INPUT /usr/share/texmf-dist/tex/latex/subfig/subfig.sty
INPUT /usr/share/texmf-dist/tex/latex/subfig/subfig.sty
INPUT /usr/share/texmf-dist/tex/latex/caption/caption3.sty
INPUT /usr/share/texmf-dist/tex/latex/caption/caption3.sty
INPUT /usr/share/texmf-dist/tex/latex/siunitx/siunitx.sty
INPUT /usr/share/texmf-dist/tex/latex/siunitx/siunitx.sty
INPUT /usr/share/texmf-dist/tex/latex/l3kernel/expl3.sty
INPUT /usr/share/texmf-dist/tex/latex/l3kernel/expl3.sty
INPUT /usr/share/texmf-dist/tex/latex/l3kernel/expl3-code.tex
INPUT /usr/share/texmf-dist/tex/latex/l3kernel/expl3-code.tex
INPUT /dev/null
INPUT /usr/share/texmf-dist/fonts/map/fontname/texfonts.map
INPUT /usr/share/texmf-dist/fonts/tfm/public/cm/cmr10.tfm
INPUT /usr/share/texmf-dist/fonts/tfm/public/cm/cmr10.tfm
INPUT /usr/share/texmf-dist/fonts/tfm/public/cm/cmr10.tfm
INPUT /usr/share/texmf-dist/fonts/tfm/public/cm/cmr10.tfm
INPUT /usr/share/texmf-dist/fonts/tfm/public/cm/cmr10.tfm
INPUT /usr/share/texmf-dist/fonts/tfm/public/cm/cmr10.tfm
INPUT /usr/share/texmf-dist/fonts/tfm/public/cm/cmr10.tfm
INPUT /usr/share/texmf-dist/fonts/tfm/public/cm/cmr10.tfm
INPUT /usr/share/texmf-dist/fonts/tfm/public/cm/cmr10.tfm
INPUT /usr/share/texmf-dist/fonts/tfm/public/cm/cmr10.tfm
INPUT /usr/share/texmf-dist/tex/generic/unicode-data/UnicodeData.txt
INPUT /usr/share/texmf-dist/tex/generic/unicode-data/UnicodeData.txt
INPUT /usr/share/texmf-dist/tex/generic/unicode-data/CaseFolding.txt
INPUT /usr/share/texmf-dist/tex/generic/unicode-data/CaseFolding.txt
INPUT /usr/share/texmf-dist/tex/generic/unicode-data/SpecialCasing.txt
INPUT /usr/share/texmf-dist/tex/generic/unicode-data/SpecialCasing.txt
INPUT /usr/share/texmf-dist/tex/latex/l3kernel/l3deprecation.def
INPUT /usr/share/texmf-dist/tex/latex/l3kernel/l3deprecation.def
INPUT /usr/share/texmf-dist/tex/latex/l3backend/l3backend-xdvipdfmx.def
INPUT /usr/share/texmf-dist/tex/latex/l3backend/l3backend-xdvipdfmx.def
INPUT /usr/share/texmf-dist/tex/latex/l3packages/xparse/xparse.sty
INPUT /usr/share/texmf-dist/tex/latex/l3packages/xparse/xparse.sty
INPUT /usr/share/texmf-dist/tex/latex/amsmath/amstext.sty
INPUT /usr/share/texmf-dist/tex/latex/amsmath/amstext.sty
INPUT /usr/share/texmf-dist/tex/latex/amsmath/amsgen.sty
INPUT /usr/share/texmf-dist/tex/latex/amsmath/amsgen.sty
INPUT /usr/share/texmf-dist/tex/latex/l3packages/l3keys2e/l3keys2e.sty
INPUT /usr/share/texmf-dist/tex/latex/l3packages/l3keys2e/l3keys2e.sty
INPUT /usr/share/texmf-dist/tex/latex/translator/translator.sty
INPUT /usr/share/texmf-dist/tex/latex/translator/translator.sty
INPUT /usr/share/texmf-dist/tex/latex/translator/translator.sty
INPUT /usr/share/texmf-dist/tex/latex/booktabs/booktabs.sty
INPUT /usr/share/texmf-dist/tex/latex/booktabs/booktabs.sty
INPUT /usr/share/texmf-dist/tex/latex/url/url.sty
INPUT /usr/share/texmf-dist/tex/latex/url/url.sty
INPUT /usr/share/texmf-dist/tex/latex/hyperref/hyperref.sty
INPUT /usr/share/texmf-dist/tex/latex/hyperref/hyperref.sty
INPUT /usr/share/texmf-dist/tex/generic/oberdiek/hobsub-hyperref.sty
INPUT /usr/share/texmf-dist/tex/generic/oberdiek/hobsub-hyperref.sty
INPUT /usr/share/texmf-dist/tex/generic/oberdiek/hobsub-hyperref.sty
INPUT /usr/share/texmf-dist/tex/generic/oberdiek/hobsub-generic.sty
INPUT /usr/share/texmf-dist/tex/generic/oberdiek/hobsub-generic.sty
INPUT /usr/share/texmf-dist/tex/generic/ifxetex/ifxetex.sty
INPUT /usr/share/texmf-dist/tex/generic/ifxetex/ifxetex.sty
INPUT /usr/share/texmf-dist/tex/latex/oberdiek/auxhook.sty
INPUT /usr/share/texmf-dist/tex/latex/oberdiek/auxhook.sty
INPUT /usr/share/texmf-dist/tex/latex/oberdiek/kvoptions.sty
INPUT /usr/share/texmf-dist/tex/latex/oberdiek/kvoptions.sty
INPUT /usr/share/texmf-dist/tex/latex/hyperref/pd1enc.def
INPUT /usr/share/texmf-dist/tex/latex/hyperref/pd1enc.def
INPUT /usr/share/texmf-dist/tex/latex/latexconfig/hyperref.cfg
INPUT /usr/share/texmf-dist/tex/latex/latexconfig/hyperref.cfg
INPUT /usr/share/texmf-dist/fonts/tfm/adobe/zapfding/pzdr.tfm
INPUT /usr/share/texmf-dist/tex/latex/hyperref/hxetex.def
INPUT /usr/share/texmf-dist/tex/latex/hyperref/hxetex.def
INPUT /usr/share/texmf-dist/tex/latex/hyperref/puenc.def
INPUT /usr/share/texmf-dist/tex/latex/hyperref/puenc.def
INPUT /usr/share/texmf-dist/tex/generic/oberdiek/stringenc.sty
INPUT /usr/share/texmf-dist/tex/generic/oberdiek/stringenc.sty
INPUT /usr/share/texmf-dist/tex/latex/oberdiek/rerunfilecheck.sty
INPUT /usr/share/texmf-dist/tex/latex/oberdiek/rerunfilecheck.sty
INPUT build/elsarticle-template-num.aux
INPUT build/elsarticle-template-num.aux
OUTPUT build/elsarticle-template-num.aux
INPUT /usr/share/texmf-dist/tex/latex/translator/translator-basic-dictionary-English.dict
INPUT /usr/share/texmf-dist/tex/latex/translator/translator-basic-dictionary-English.dict
INPUT /usr/share/texmf-dist/tex/latex/siunitx/siunitx-abbreviations.cfg
INPUT /usr/share/texmf-dist/tex/latex/siunitx/siunitx-abbreviations.cfg
INPUT /usr/share/texmf-dist/tex/latex/hyperref/nameref.sty
INPUT /usr/share/texmf-dist/tex/latex/hyperref/nameref.sty
INPUT /usr/share/texmf-dist/tex/generic/oberdiek/gettitlestring.sty
INPUT /usr/share/texmf-dist/tex/generic/oberdiek/gettitlestring.sty
INPUT build/elsarticle-template-num.out
INPUT build/elsarticle-template-num.out
INPUT build/elsarticle-template-num.out
INPUT build/elsarticle-template-num.out
INPUT build/elsarticle-template-num.out
OUTPUT build/elsarticle-template-num.out
INPUT /usr/share/texmf-dist/fonts/tfm/public/cm/cmr12.tfm
INPUT /usr/share/texmf-dist/fonts/tfm/public/cm/cmr8.tfm
INPUT /usr/share/texmf-dist/fonts/tfm/public/cm/cmr6.tfm
INPUT /usr/share/texmf-dist/fonts/tfm/public/cm/cmmi12.tfm
INPUT /usr/share/texmf-dist/fonts/tfm/public/cm/cmmi8.tfm
INPUT /usr/share/texmf-dist/fonts/tfm/public/cm/cmmi6.tfm
INPUT /usr/share/texmf-dist/fonts/tfm/public/cm/cmsy10.tfm
INPUT /usr/share/texmf-dist/fonts/tfm/public/cm/cmsy8.tfm
INPUT /usr/share/texmf-dist/fonts/tfm/public/cm/cmsy6.tfm
INPUT /usr/share/texmf-dist/fonts/tfm/public/cm/cmex10.tfm
INPUT /usr/share/texmf-dist/fonts/tfm/public/amsfonts/cmextra/cmex8.tfm
INPUT /usr/share/texmf-dist/fonts/tfm/public/amsfonts/cmextra/cmex7.tfm
INPUT /usr/share/texmf-dist/tex/latex/amsfonts/umsa.fd
INPUT /usr/share/texmf-dist/tex/latex/amsfonts/umsa.fd
INPUT /usr/share/texmf-dist/fonts/tfm/public/amsfonts/symbols/msam10.tfm
INPUT /usr/share/texmf-dist/fonts/tfm/public/amsfonts/symbols/msam10.tfm
INPUT /usr/share/texmf-dist/fonts/tfm/public/amsfonts/symbols/msam7.tfm
INPUT /usr/share/texmf-dist/tex/latex/amsfonts/umsb.fd
INPUT /usr/share/texmf-dist/tex/latex/amsfonts/umsb.fd
INPUT /usr/share/texmf-dist/fonts/tfm/public/amsfonts/symbols/msbm10.tfm
INPUT /usr/share/texmf-dist/fonts/tfm/public/amsfonts/symbols/msbm10.tfm
INPUT /usr/share/texmf-dist/fonts/tfm/public/amsfonts/symbols/msbm7.tfm
INPUT /usr/share/texmf-dist/fonts/tfm/public/cm/cmbx12.tfm
INPUT /usr/share/texmf-dist/fonts/tfm/public/cm/cmbx8.tfm
INPUT /usr/share/texmf-dist/fonts/tfm/public/cm/cmbx6.tfm
INPUT /usr/share/texmf-dist/fonts/tfm/public/cm/cmmib10.tfm
INPUT /usr/share/texmf-dist/fonts/tfm/public/amsfonts/cmextra/cmmib8.tfm
INPUT /usr/share/texmf-dist/fonts/tfm/public/amsfonts/cmextra/cmmib6.tfm
INPUT /usr/share/texmf-dist/fonts/tfm/public/cm/cmbsy10.tfm
INPUT /usr/share/texmf-dist/fonts/tfm/public/amsfonts/cmextra/cmbsy8.tfm
INPUT /usr/share/texmf-dist/fonts/tfm/public/amsfonts/cmextra/cmbsy6.tfm
INPUT /usr/share/texmf-dist/fonts/tfm/public/cm/cmss12.tfm
INPUT /usr/share/texmf-dist/fonts/tfm/public/cm/cmss8.tfm
INPUT /usr/share/texmf-dist/fonts/tfm/public/cm/cmss8.tfm
INPUT /usr/share/texmf-dist/fonts/tfm/public/cm/cmtt12.tfm
INPUT /usr/share/texmf-dist/fonts/tfm/public/cm/cmtt8.tfm
INPUT /usr/share/texmf-dist/fonts/tfm/public/cm/cmtt8.tfm
INPUT /usr/share/texmf-dist/fonts/tfm/public/amsfonts/cmextra/cmex7.tfm
INPUT /usr/share/texmf-dist/fonts/tfm/public/amsfonts/cmextra/cmex7.tfm
INPUT /usr/share/texmf-dist/fonts/tfm/public/cm/cmss10.tfm
INPUT /usr/share/texmf-dist/fonts/tfm/public/cm/cmss8.tfm
INPUT /usr/share/texmf-dist/fonts/tfm/public/cm/cmss8.tfm
INPUT /usr/share/texmf-dist/fonts/tfm/public/cm/cmtt10.tfm
INPUT /usr/share/texmf-dist/fonts/tfm/public/cm/cmtt8.tfm
INPUT /usr/share/texmf-dist/fonts/tfm/public/cm/cmtt8.tfm
INPUT /usr/share/texmf-dist/fonts/tfm/public/amsfonts/symbols/msam10.tfm
INPUT /usr/share/texmf-dist/fonts/tfm/public/amsfonts/symbols/msam7.tfm
INPUT /usr/share/texmf-dist/fonts/tfm/public/amsfonts/symbols/msam5.tfm
INPUT /usr/share/texmf-dist/fonts/tfm/public/amsfonts/symbols/msbm10.tfm
INPUT /usr/share/texmf-dist/fonts/tfm/public/amsfonts/symbols/msbm7.tfm
INPUT /usr/share/texmf-dist/fonts/tfm/public/amsfonts/symbols/msbm5.tfm
INPUT /usr/share/texmf-dist/fonts/tfm/public/cm/cmbx10.tfm
INPUT /usr/share/texmf-dist/fonts/tfm/public/cm/cmbx7.tfm
INPUT /usr/share/texmf-dist/fonts/tfm/public/cm/cmbx5.tfm
INPUT /usr/share/texmf-dist/fonts/tfm/public/cm/cmmib10.tfm
INPUT /usr/share/texmf-dist/fonts/tfm/public/amsfonts/cmextra/cmmib7.tfm
INPUT /usr/share/texmf-dist/fonts/tfm/public/amsfonts/cmextra/cmmib5.tfm
INPUT /usr/share/texmf-dist/fonts/tfm/public/cm/cmbsy10.tfm
INPUT /usr/share/texmf-dist/fonts/tfm/public/amsfonts/cmextra/cmbsy7.tfm
INPUT /usr/share/texmf-dist/fonts/tfm/public/amsfonts/cmextra/cmbsy5.tfm
INPUT /usr/share/texmf-dist/tex/generic/oberdiek/se-ascii-print.def
INPUT /usr/share/texmf-dist/tex/generic/oberdiek/se-ascii-print.def
INPUT /usr/share/texmf-dist/tex/generic/oberdiek/se-ascii-print.def
OUTPUT build/elsarticle-template-num.xdv
INPUT img/image1.png
INPUT img/image2.jpg
INPUT img/image3.png
INPUT img/image5.png
INPUT img/image6.png
INPUT img/image7.png
INPUT img/image8.png
INPUT img/image9.png
INPUT img/image10.png
INPUT img/image11.png
INPUT img/image12.png
INPUT img/image13.png
INPUT img/image14.png
INPUT img/image15.png
INPUT img/image16.png
INPUT img/image17.png
INPUT build/elsarticle-template-num.bbl
INPUT build/elsarticle-template-num.bbl
INPUT build/elsarticle-template-num.aux
INPUT build/elsarticle-template-num.out
