\relax 
\providecommand\hyper@newdestlabel[2]{}
\providecommand\HyperFirstAtBeginDocument{\AtBeginDocument}
\HyperFirstAtBeginDocument{\ifx\hyper@anchor\@undefined
\global\let\oldcontentsline\contentsline
\gdef\contentsline#1#2#3#4{\oldcontentsline{#1}{#2}{#3}}
\global\let\oldnewlabel\newlabel
\gdef\newlabel#1#2{\newlabelxx{#1}#2}
\gdef\newlabelxx#1#2#3#4#5#6{\oldnewlabel{#1}{{#2}{#3}}}
\AtEndDocument{\ifx\hyper@anchor\@undefined
\let\contentsline\oldcontentsline
\let\newlabel\oldnewlabel
\fi}
\fi}
\global\let\hyper@last\relax 
\gdef\HyperFirstAtBeginDocument#1{#1}
\providecommand*\HyPL@Entry[1]{}
\emailauthor{madeleine.albertini@uftm.edu.br}{Madeleine~Rocio~Medrano~Castillo\corref {cor1}\fnref {fn1}}
\Newlabel{cor1}{1}
\HyPL@Entry{0<</S/D>>}
\Newlabel{l1}{a}
\Newlabel{l2}{b}
\citation{ref1}
\citation{ref2}
\citation{ref3}
\citation{ref4}
\citation{ref5}
\citation{ref6}
\@writefile{toc}{\contentsline {section}{\numberline {1}Introduction}{2}{section.1}\protected@file@percent }
\newlabel{sec:introduction}{{1}{2}{Introduction}{section.1}{}}
\citation{ref7}
\citation{ref8}
\citation{ref9}
\citation{ref10,ref11}
\citation{ref12}
\@writefile{toc}{\contentsline {section}{\numberline {2}Place of Study}{4}{section.2}\protected@file@percent }
\newlabel{sec:place-of-study}{{2}{4}{Place of Study}{section.2}{}}
\@writefile{lof}{\contentsline {figure}{\numberline {1}{\ignorespaces Simplified single-line diagram from UFTM hospital.}}{5}{figure.1}\protected@file@percent }
\newlabel{fig:1}{{1}{5}{Simplified single-line diagram from UFTM hospital}{figure.1}{}}
\citation{ref13}
\@writefile{toc}{\contentsline {section}{\numberline {3}Methodology}{6}{section.3}\protected@file@percent }
\newlabel{sec:methodology}{{3}{6}{Methodology}{section.3}{}}
\@writefile{toc}{\contentsline {subsection}{\numberline {3.1}Diagnosis of energy efficiency}{6}{subsection.3.1}\protected@file@percent }
\@writefile{toc}{\contentsline {subsubsection}{\numberline {3.1.1}THD (THDi)}{6}{subsubsection.3.1.1}\protected@file@percent }
\newlabel{eq:1}{{1}{6}{THD (THDi)}{equation.3.1}{}}
\citation{ref19}
\citation{ref14}
\newlabel{eq:2}{{2}{7}{THD (THDi)}{equation.3.2}{}}
\@writefile{toc}{\contentsline {subsubsection}{\numberline {3.1.2}On-site measurements}{7}{subsubsection.3.1.2}\protected@file@percent }
\@writefile{lof}{\contentsline {figure}{\numberline {2}{\ignorespaces Meter Fluke 1735}}{8}{figure.2}\protected@file@percent }
\newlabel{fig:2}{{2}{8}{Meter Fluke 1735}{figure.2}{}}
\@writefile{toc}{\contentsline {subsubsection}{\numberline {3.1.3}Consumption $\times $ Temperature}{8}{subsubsection.3.1.3}\protected@file@percent }
\citation{ref15}
\@writefile{lof}{\contentsline {figure}{\numberline {3}{\ignorespaces Correlation between consumption and temperature in 2018.}}{9}{figure.3}\protected@file@percent }
\newlabel{fig:3}{{3}{9}{Correlation between consumption and temperature in 2018}{figure.3}{}}
\@writefile{toc}{\contentsline {subsection}{\numberline {3.2}Artificial Neural Networks}{9}{subsection.3.2}\protected@file@percent }
\@writefile{toc}{\contentsline {subsubsection}{\numberline {3.2.1}Architecture}{9}{subsubsection.3.2.1}\protected@file@percent }
\citation{ref18}
\citation{ref16}
\citation{ref17}
\citation{ref16}
\citation{ref15}
\@writefile{lof}{\contentsline {figure}{\numberline {4}{\ignorespaces Neural Network with one input layer, two hidden layers and one output layer.}}{11}{figure.4}\protected@file@percent }
\newlabel{fig:5}{{4}{11}{Neural Network with one input layer, two hidden layers and one output layer}{figure.4}{}}
\@writefile{toc}{\contentsline {subsubsection}{\numberline {3.2.2}Learning and training}{11}{subsubsection.3.2.2}\protected@file@percent }
\citation{ref17}
\citation{ref19}
\@writefile{lof}{\contentsline {figure}{\numberline {5}{\ignorespaces Energy consumption (\SI {}{\kilo \watthour })}}{13}{figure.5}\protected@file@percent }
\newlabel{fig:6}{{5}{13}{Energy consumption (\SI {}{\kilo \watthour })}{figure.5}{}}
\@writefile{lof}{\contentsline {figure}{\numberline {6}{\ignorespaces Graph for consumption in 2018}}{14}{figure.6}\protected@file@percent }
\newlabel{fig:7}{{6}{14}{Graph for consumption in 2018}{figure.6}{}}
\citation{ref19}
\citation{ref20}
\@writefile{toc}{\contentsline {section}{\numberline {4}Results}{15}{section.4}\protected@file@percent }
\newlabel{sec:results}{{4}{15}{Results}{section.4}{}}
\@writefile{toc}{\contentsline {subsection}{\numberline {4.1}THD and THDi}{15}{subsection.4.1}\protected@file@percent }
\@writefile{lof}{\contentsline {figure}{\numberline {7}{\ignorespaces THDi \SI {1000}{\kilo \voltampere } transformer.}}{16}{figure.7}\protected@file@percent }
\newlabel{fig:8}{{7}{16}{THDi \SI {1000}{\kilo \voltampere } transformer}{figure.7}{}}
\@writefile{lof}{\contentsline {figure}{\numberline {8}{\ignorespaces THDi \SI {1000}{\kilo \voltampere } transformer.}}{16}{figure.8}\protected@file@percent }
\newlabel{fig:9}{{8}{16}{THDi \SI {1000}{\kilo \voltampere } transformer}{figure.8}{}}
\@writefile{toc}{\contentsline {subsection}{\numberline {4.2}Correlation of THD and consumption}{16}{subsection.4.2}\protected@file@percent }
\@writefile{lof}{\contentsline {figure}{\numberline {9}{\ignorespaces THDi \SI {300}{\kilo \voltampere } transformer.}}{17}{figure.9}\protected@file@percent }
\newlabel{fig:10}{{9}{17}{THDi \SI {300}{\kilo \voltampere } transformer}{figure.9}{}}
\@writefile{lof}{\contentsline {figure}{\numberline {10}{\ignorespaces Consumption and THD curve profile of each phase.}}{18}{figure.10}\protected@file@percent }
\newlabel{fig:11}{{10}{18}{Consumption and THD curve profile of each phase}{figure.10}{}}
\@writefile{lof}{\contentsline {figure}{\numberline {11}{\ignorespaces Predicting consumption for the year 2019.}}{18}{figure.11}\protected@file@percent }
\newlabel{fig:12}{{11}{18}{Predicting consumption for the year 2019}{figure.11}{}}
\@writefile{lof}{\contentsline {figure}{\numberline {12}{\ignorespaces Consumption prediction from 2019 to 2021.}}{19}{figure.12}\protected@file@percent }
\newlabel{fig:13}{{12}{19}{Consumption prediction from 2019 to 2021}{figure.12}{}}
\@writefile{lof}{\contentsline {figure}{\numberline {13}{\ignorespaces Phasee A THD.}}{19}{figure.13}\protected@file@percent }
\newlabel{fig:14}{{13}{19}{Phasee A THD}{figure.13}{}}
\@writefile{lof}{\contentsline {figure}{\numberline {14}{\ignorespaces THD prediction for the year 2019.}}{20}{figure.14}\protected@file@percent }
\newlabel{fig:15}{{14}{20}{THD prediction for the year 2019}{figure.14}{}}
\@writefile{lof}{\contentsline {figure}{\numberline {15}{\ignorespaces THD prediction from 2019 to 2021.}}{20}{figure.15}\protected@file@percent }
\newlabel{fig:16}{{15}{20}{THD prediction from 2019 to 2021}{figure.15}{}}
\@writefile{lof}{\contentsline {figure}{\numberline {16}{\ignorespaces THD prediction from 2019 to 2024.}}{20}{figure.16}\protected@file@percent }
\newlabel{fig:17}{{16}{20}{THD prediction from 2019 to 2024}{figure.16}{}}
\@writefile{toc}{\contentsline {section}{\numberline {5}Conclusion}{21}{section.5}\protected@file@percent }
\newlabel{sec:conclusion}{{5}{21}{Conclusion}{section.5}{}}
\bibstyle{elsarticle-num}
\bibdata{references.bib}
\bibcite{ref1}{{1}{}{{}}{{}}}
\bibcite{ref2}{{2}{}{{}}{{}}}
\bibcite{ref3}{{3}{}{{}}{{}}}
\bibcite{ref4}{{4}{}{{}}{{}}}
\bibcite{ref5}{{5}{}{{}}{{}}}
\bibcite{ref6}{{6}{}{{}}{{}}}
\bibcite{ref7}{{7}{}{{}}{{}}}
\bibcite{ref8}{{8}{}{{}}{{}}}
\bibcite{ref9}{{9}{}{{}}{{}}}
\bibcite{ref10}{{10}{}{{}}{{}}}
\bibcite{ref11}{{11}{}{{}}{{}}}
\bibcite{ref12}{{12}{}{{}}{{}}}
\bibcite{ref13}{{13}{}{{}}{{}}}
\bibcite{ref19}{{14}{}{{}}{{}}}
\bibcite{ref14}{{15}{}{{}}{{}}}
\bibcite{ref15}{{16}{}{{}}{{}}}
\bibcite{ref18}{{17}{}{{}}{{}}}
\bibcite{ref16}{{18}{}{{}}{{}}}
\bibcite{ref17}{{19}{}{{}}{{}}}
\bibcite{ref20}{{20}{}{{}}{{}}}
\providecommand\NAT@force@numbers{}\NAT@force@numbers
