This is BibTeX, Version 0.99d (TeX Live 2019/Arch Linux)
Capacity: max_strings=100000, hash_size=100000, hash_prime=85009
The top-level auxiliary file: elsarticle-template-num.aux
The style file: elsarticle-num.bst
Database file #1: references.bib
Warning--empty pages in ref11
Warning--empty year in ref12
Warning--empty year in ref18
You've used 20 entries,
            2952 wiz_defined-function locations,
            793 strings with 9159 characters,
and the built_in function-call counts, 6346 in all, are:
= -- 597
> -- 149
< -- 10
+ -- 63
- -- 43
* -- 372
:= -- 784
add.period$ -- 28
call.type$ -- 20
change.case$ -- 22
chr.to.int$ -- 0
cite$ -- 23
duplicate$ -- 242
empty$ -- 802
format.name$ -- 56
if$ -- 1753
int.to.chr$ -- 0
int.to.str$ -- 20
missing$ -- 15
newline$ -- 79
num.names$ -- 17
pop$ -- 163
preamble$ -- 1
purify$ -- 0
quote$ -- 0
skip$ -- 489
stack$ -- 0
substring$ -- 247
swap$ -- 85
text.length$ -- 10
text.prefix$ -- 0
top$ -- 0
type$ -- 0
warning$ -- 3
while$ -- 37
width$ -- 22
write$ -- 194
(There were 3 warnings)
